<?xml version="1.0" encoding="utf-8"?>
<!-- Generator: Adobe Illustrator 17.1.0, SVG Export Plug-In . SVG Version: 6.00 Build 0)  -->
<!DOCTYPE svg PUBLIC "-//W3C//DTD SVG 1.1//EN" "http://www.w3.org/Graphics/SVG/1.1/DTD/svg11.dtd">
<svg version="1.1" id="Layer_1" xmlns="http://www.w3.org/2000/svg" xmlns:xlink="http://www.w3.org/1999/xlink" x="0px" y="0px"
	 viewBox="0 0 55 55" enable-background="new 0 0 55 55" xml:space="preserve">
<g>
	<g>
		<g>
			<path fill="#EE7E32" d="M20.7,42.7h1.2v3c0,0.5,0.4,0.9,0.9,0.9c0.5,0,0.9-0.4,0.9-0.9v-3h1.3v3c0,0.5,0.4,0.9,0.9,0.9
				c0.5,0,0.9-0.4,0.9-0.9v-3H28v3c0,0.5,0.4,0.9,0.9,0.9c0.5,0,0.9-0.4,0.9-0.9v-3H31v3c0,0.5,0.4,0.9,0.9,0.9s0.9-0.4,0.9-0.9v-3
				h1c0.5,0,0.9-0.4,0.9-0.9v-2.2h2.1c1.4,0,2.6-1.2,2.6-2.6v-2.3h2.2c0.5,0,0.9-0.4,0.9-0.9v-1h3.1c0.5,0,0.9-0.4,0.9-0.9
				s-0.4-0.9-0.9-0.9h-3.1v-1.3h3.1c0.5,0,0.9-0.4,0.9-0.9c0-0.5-0.4-0.9-0.9-0.9h-3.1v-1.3h3.1c0.5,0,0.9-0.4,0.9-0.9
				c0-0.5-0.4-0.9-0.9-0.9h-3.1v-1.3h3.1c0.5,0,0.9-0.4,0.9-0.9c0-0.5-0.4-0.9-0.9-0.9h-3.1v-1.2c0-0.5-0.4-0.9-0.9-0.9h-2.2V18
				c0-1.4-1.2-2.6-2.6-2.6h-2.1V13c0-0.5-0.4-0.9-0.9-0.9h-1v-3c0-0.5-0.4-0.9-0.9-0.9S31,8.7,31,9.2v3h-1.3v-3
				c0-0.5-0.4-0.9-0.9-0.9c-0.5,0-0.9,0.4-0.9,0.9v3h-1.3v-3c0-0.5-0.4-0.9-0.9-0.9c-0.5,0-0.9,0.4-0.9,0.9v3h-1.3v-3
				c0-0.5-0.4-0.9-0.9-0.9c-0.5,0-0.9,0.4-0.9,0.9v3h-1.2c-0.5,0-0.9,0.4-0.9,0.9v2.4h-2.1c-1.4,0-2.6,1.2-2.6,2.6v1.9h-2.2
				c-0.5,0-0.9,0.4-0.9,0.9v1.2h-3c-0.5,0-0.9,0.4-0.9,0.9s0.4,0.9,0.9,0.9h3V25h-3c-0.5,0-0.9,0.4-0.9,0.9c0,0.5,0.4,0.9,0.9,0.9h3
				v1.3h-3c-0.5,0-0.9,0.4-0.9,0.9c0,0.5,0.4,0.9,0.9,0.9h3v1.3h-3c-0.5,0-0.9,0.4-0.9,0.9c0,0.5,0.4,0.9,0.9,0.9h3v1
				c0,0.5,0.4,0.9,0.9,0.9h2.2V37c0,1.4,1.2,2.6,2.6,2.6h2.1v2.2C19.8,42.3,20.2,42.7,20.7,42.7z M15.1,33h-1.3V21.6h1.3V33z
				 M32.9,40.9H21.5v-1.3h11.4V40.9z M32.9,13.9v1.3H21.5v-1.3H32.9z M17.7,37.9c-0.5,0-0.9-0.4-0.9-0.9v-3.2V20.7V18
				c0-0.5,0.4-0.9,0.9-0.9h19.1c0.5,0,0.9,0.4,0.9,0.9v2.8v2.6c0,0.5,0.4,0.9,0.9,0.9s0.9-0.4,0.9-0.9v-1.8h1.3V33h-1.3v-6.8
				c0-0.5-0.4-0.9-0.9-0.9s-0.9,0.4-0.9,0.9v7.7V37c0,0.5-0.4,0.9-0.9,0.9h-3H20.7H17.7z"/>
			<path fill="#EE7E32" d="M35.9,35.3V19.7c0-0.5-0.4-0.9-0.9-0.9H19.4c-0.5,0-0.9,0.4-0.9,0.9v15.6c0,0.5,0.4,0.9,0.9,0.9H35
				C35.5,36.2,35.9,35.8,35.9,35.3z M34.2,34.5H20.3V20.5h13.9V34.5z"/>
			<path fill="#EE7E32" d="M8.2,5.6C8.2,4.2,7.1,3,5.7,3S3.2,4.2,3.2,5.6s1.1,2.5,2.5,2.5S8.2,7,8.2,5.6z M5.7,6.4
				C5.2,6.4,4.9,6,4.9,5.6c0-0.5,0.4-0.8,0.8-0.8c0.5,0,0.8,0.4,0.8,0.8C6.5,6,6.2,6.4,5.7,6.4z"/>
			<path fill="#EE7E32" d="M49.4,8.1C50.8,8.1,52,7,52,5.6C52,4.2,50.8,3,49.4,3c-1.4,0-2.5,1.1-2.5,2.5C46.9,7,48,8.1,49.4,8.1z
				 M49.4,4.8c0.5,0,0.8,0.4,0.8,0.8s-0.4,0.8-0.8,0.8c-0.5,0-0.8-0.4-0.8-0.8C48.6,5.1,49,4.8,49.4,4.8z"/>
			<path fill="#EE7E32" d="M49.4,52c1.4,0,2.5-1.1,2.5-2.5s-1.1-2.5-2.5-2.5c-1.4,0-2.5,1.1-2.5,2.5C46.9,50.9,48,52,49.4,52z
				 M49.4,48.7c0.5,0,0.8,0.4,0.8,0.8s-0.4,0.8-0.8,0.8c-0.5,0-0.8-0.4-0.8-0.8C48.6,49,49,48.7,49.4,48.7z"/>
			<path fill="#EE7E32" d="M49.8,0h-8.3c-0.5,0-0.9,0.4-0.9,0.9v2c0,0.3-0.2,0.5-0.5,0.5H17.3c-0.3,0-0.5-0.2-0.5-0.5v-2
				C16.8,0.4,16.4,0,16,0H5.2C2.3,0,0,2.3,0,5.2v44.6C0,52.7,2.3,55,5.2,55H16c0.5,0,0.9-0.4,0.9-0.9v-2c0-0.3,0.2-0.5,0.5-0.5h2.5
				c0.5,0,0.9-0.4,0.9-0.9c0-0.5-0.4-0.9-0.9-0.9h-2.5c-1.2,0-2.2,1-2.2,2.2v1.2H5.2c-1.9,0-3.5-1.6-3.5-3.5V5.2
				c0-1.9,1.6-3.5,3.5-3.5h9.9v1.2c0,1.2,1,2.2,2.2,2.2h22.8c1.2,0,2.2-1,2.2-2.2V1.7h7.4c1.9,0,3.5,1.6,3.5,3.5v11.9h-2.2
				c-0.5,0-0.9,0.4-0.9,0.9V37c0,0.5,0.4,0.9,0.9,0.9h2.2v11.9c0,1.9-1.6,3.5-3.5,3.5h-7.4v-1.2c0-1.2-1-2.2-2.2-2.2H22.7
				c-0.5,0-0.9,0.4-0.9,0.9s0.4,0.9,0.9,0.9h17.5c0.3,0,0.5,0.2,0.5,0.5v2c0,0.5,0.4,0.9,0.9,0.9h8.3c2.9,0,5.2-2.3,5.2-5.2V37V18
				V5.2C55,2.3,52.7,0,49.8,0z M53.3,36.2H52V18.8h1.3V36.2z"/>
			<path fill="#EE7E32" d="M22.6,23.7H32c0.5,0,0.9-0.4,0.9-0.9c0-0.5-0.4-0.9-0.9-0.9h-9.3c-0.5,0-0.9,0.4-0.9,0.9
				C21.8,23.3,22.2,23.7,22.6,23.7z"/>
			<path fill="#EE7E32" d="M22.6,33.1H32c0.5,0,0.9-0.4,0.9-0.9c0-0.5-0.4-0.9-0.9-0.9h-9.3c-0.5,0-0.9,0.4-0.9,0.9
				C21.8,32.7,22.2,33.1,22.6,33.1z"/>
			<path fill="#EE7E32" d="M22.6,29.9H32c0.5,0,0.9-0.4,0.9-0.9s-0.4-0.9-0.9-0.9h-9.3c-0.5,0-0.9,0.4-0.9,0.9
				C21.8,29.5,22.2,29.9,22.6,29.9z"/>
			<path fill="#EE7E32" d="M22.6,26.8H32c0.5,0,0.9-0.4,0.9-0.9c0-0.5-0.4-0.9-0.9-0.9h-9.3c-0.5,0-0.9,0.4-0.9,0.9
				C21.8,26.4,22.2,26.8,22.6,26.8z"/>
			<path fill="#EE7E32" d="M5.2,36.9L5.2,36.9c-0.5,0-0.9,0.4-0.9,0.9c0,0.5,0.4,0.9,0.9,0.9s0.9-0.4,0.9-0.9
				C6.1,37.2,5.7,36.9,5.2,36.9z"/>
			<path fill="#EE7E32" d="M5.2,46.3L5.2,46.3c-0.5,0-0.9,0.4-0.9,0.9c0,0.5,0.4,0.9,0.9,0.9s0.9-0.4,0.9-0.9
				C6.1,46.7,5.7,46.3,5.2,46.3z"/>
			<path fill="#EE7E32" d="M5.2,43.1L5.2,43.1c-0.5,0-0.9,0.4-0.9,0.9s0.4,0.9,0.9,0.9s0.9-0.4,0.9-0.9C6.1,43.5,5.7,43.1,5.2,43.1z
				"/>
			<path fill="#EE7E32" d="M5.2,40L5.2,40c-0.5,0-0.9,0.4-0.9,0.9s0.4,0.9,0.9,0.9s0.9-0.4,0.9-0.9C6.1,40.4,5.7,40,5.2,40z"/>
			<path fill="#EE7E32" d="M5.2,9.9L5.2,9.9c-0.5,0-0.9,0.4-0.9,0.9c0,0.5,0.4,0.9,0.9,0.9s0.9-0.4,0.9-0.9
				C6.1,10.3,5.7,9.9,5.2,9.9z"/>
			<path fill="#EE7E32" d="M5.2,19.3L5.2,19.3c-0.5,0-0.9,0.4-0.9,0.9c0,0.5,0.4,0.9,0.9,0.9s0.9-0.4,0.9-0.9
				C6.1,19.7,5.7,19.3,5.2,19.3z"/>
			<path fill="#EE7E32" d="M5.2,16.2L5.2,16.2c-0.5,0-0.9,0.4-0.9,0.9s0.4,0.9,0.9,0.9s0.9-0.4,0.9-0.9C6.1,16.5,5.7,16.2,5.2,16.2z
				"/>
			<path fill="#EE7E32" d="M5.2,13L5.2,13c-0.5,0-0.9,0.4-0.9,0.9s0.4,0.9,0.9,0.9s0.9-0.4,0.9-0.9C6.1,13.4,5.7,13,5.2,13z"/>
			<path fill="#EE7E32" d="M8.6,51c0.5,0,0.9-0.4,0.9-0.9c0-0.5-0.4-0.9-0.9-0.9c-0.5,0-0.9,0.4-0.9,0.9v0C7.7,50.6,8.1,51,8.6,51z"
				/>
			<path fill="#EE7E32" d="M10.9,50.1L10.9,50.1c0,0.5,0.4,0.9,0.9,0.9s0.9-0.4,0.9-0.9c0-0.5-0.4-0.9-0.9-0.9
				C11.2,49.3,10.9,49.6,10.9,50.1z"/>
		</g>
	</g>
</g>
</svg>
